…
``` r
# Combine precipitation datasets for 2018 and 2019
trash_wheel_precipitation_2018_2019 = 
  bind_rows(trash_wheel_precipitation_2018, trash_wheel_precipitation_2019)

trash_wheel_precipitation_2018_2019
```

    ## # A tibble: 24 × 3
    ##     year month     total_precipitation
    ##    <dbl> <chr>                   <dbl>
    ##  1  2018 January                  0.94
    ##  2  2018 February                 4.8 
    ##  3  2018 March                    2.69
    ##  4  2018 April                    4.69
    ##  5  2018 May                      9.27
    ##  6  2018 June                     4.77
    ##  7  2018 July                    10.2 
    ##  8  2018 August                   6.45
    ##  9  2018 September               10.5 
    ## 10  2018 October                  2.12
    ## # … with 14 more rows
…
